{
  "page": {
    "content": [
      {
        "patiId": "001",
        "visitNo": "1",
        "adviceName": "高血压",
        "dose": "1",
        "unit": "片",
        "frequency": "日/次",
        "way": "口服",
        "adviceType": "口服",
        "startTime":"2017-09-07",
        "endTime":"2017-09-07"
      },
      {
        "patiId": "001",
        "visitNo": "1",
        "adviceName": "高血压",
        "dose": "1",
        "unit": "片",
        "frequency": "日/次",
        "way": "口服",
        "adviceType": "口服",
        "startTime":"2017-09-07",
        "endTime":"2017-09-07"
      },
      {
        "patiId": "001",
        "visitNo": "1",
        "adviceName": "高血压",
        "dose": "1",
        "unit": "片",
        "frequency": "日/次",
        "way": "口服",
        "adviceType": "口服",
        "startTime":"2017-09-07",
        "endTime":"2017-09-07"
      },
      {
        "patiId": "001",
        "visitNo": "1",
        "adviceName": "高血压",
        "dose": "1",
        "unit": "片",
        "frequency": "日/次",
        "way": "口服",
        "adviceType": "口服",
        "startTime":"2017-09-07",
        "endTime":"2017-09-07"
      },
      {
        "patiId": "001",
        "visitNo": "1",
        "adviceName": "高血压",
        "dose": "1",
        "unit": "片",
        "frequency": "日/次",
        "way": "口服",
        "adviceType": "口服",
        "startTime":"2017-09-07",
        "endTime":"2017-09-07"
      },
      {
        "patiId": "001",
        "visitNo": "1",
        "adviceName": "高血压",
        "dose": "1",
        "unit": "片",
        "frequency": "日/次",
        "way": "口服",
        "adviceType": "口服",
        "startTime":"2017-09-07",
        "endTime":"2017-09-07"
      },
      {
        "patiId": "001",
        "visitNo": "1",
        "adviceName": "高血压",
        "dose": "1",
        "unit": "片",
        "frequency": "日/次",
        "way": "口服",
        "adviceType": "口服",
        "startTime":"2017-09-07",
        "endTime":"2017-09-07"
      }
    ],
    "last": false,
    "totalPages": 5,
    "totalElements": 50,
    "numberOfElements": 10,
    "sort": [
      {
        "direction": "ASC",
        "property": "id",
        "ignoreCase": false,
        "nullHandling": "NATIVE",
        "ascending": true
      }
    ],
    "first": true,
    "size": 10,
    "number": 0
  },
  "status": "ok",
  "description": "数据请求成功"
}