{
  "page": {
    "content": [
      {
        "patiId": "001",
        "visitNo": "1",
        "patiName": "张三",
        "sex": "男",
        "age": "20",
        "patiStatus": "在院",
        "dept": "普通外二科病区",
        "ward": "呼吸内科四病区",
        "admissionTime":"2017-09-07"
      },
      {
        "patiId": "001",
        "visitNo": "1",
        "patiName": "张三",
        "sex": "男",
        "age": "20",
        "patiStatus": "在院",
        "dept": "普通外二科病区",
        "ward": "呼吸内科四病区",
        "admissionTime":"2017-09-07"
      },
      {
        "patiId": "001",
        "visitNo": "1",
        "patiName": "张三",
        "sex": "男",
        "age": "20",
        "patiStatus": "在院",
        "dept": "普通外二科病区",
        "ward": "呼吸内科四病区",
        "admissionTime":"2017-09-07"
      },
      {
        "patiId": "001",
        "visitNo": "1",
        "patiName": "张三",
        "sex": "男",
        "age": "20",
        "patiStatus": "在院",
        "dept": "普通外二科病区",
        "ward": "呼吸内科四病区",
        "admissionTime":"2017-09-07"
      },
      {
        "patiId": "001",
        "visitNo": "1",
        "patiName": "张三",
        "sex": "男",
        "age": "20",
        "patiStatus": "在院",
        "dept": "普通外二科病区",
        "ward": "呼吸内科四病区",
        "admissionTime":"2017-09-07"
      },
      {
        "patiId": "001",
        "visitNo": "1",
        "patiName": "张三",
        "sex": "男",
        "age": "20",
        "patiStatus": "在院",
        "dept": "普通外二科病区",
        "ward": "呼吸内科四病区",
        "admissionTime":"2017-09-07"
      },
      {
        "patiId": "001",
        "visitNo": "1",
        "patiName": "张三",
        "sex": "男",
        "age": "20",
        "patiStatus": "在院",
        "dept": "普通外二科病区",
        "ward": "呼吸内科四病区",
        "admissionTime":"2017-09-07"
      },
      {
        "patiId": "001",
        "visitNo": "1",
        "patiName": "张三",
        "sex": "男",
        "age": "20",
        "patiStatus": "在院",
        "dept": "普通外二科病区",
        "ward": "呼吸内科四病区",
        "admissionTime":"2017-09-07"
      },
      {
        "patiId": "001",
        "visitNo": "1",
        "patiName": "张三",
        "sex": "男",
        "age": "20",
        "patiStatus": "在院",
        "dept": "普通外二科病区",
        "ward": "呼吸内科四病区",
        "admissionTime":"2017-09-07"
      },
      {
        "patiId": "001",
        "visitNo": "1",
        "patiName": "张三",
        "sex": "男",
        "age": "20",
        "patiStatus": "在院",
        "dept": "普通外二科病区",
        "ward": "呼吸内科四病区",
        "admissionTime":"2017-09-07"
      }
    ],
    "last": false,
    "totalPages": 5,
    "totalElements": 50,
    "numberOfElements": 10,
    "sort": [
      {
        "direction": "ASC",
        "property": "id",
        "ignoreCase": false,
        "nullHandling": "NATIVE",
        "ascending": true
      }
    ],
    "first": true,
    "size": 10,
    "number": 0
  },
  "status": "ok",
  "description": "数据请求成功"
}