{
    "page": {
        "content": [
            {
                "id": null,
                "xlPatientId": null,
                "xlMedicalId": null,
                "patiId": "Y2802470",
                "patiVisitId": "1",
                "drugName": "阿司匹林肠溶片",
                "drugId": null,
                "repeatIndicator": null,
                "drugClassId": null,
                "doseage": "0.1",
                "doseUnit": "g",
                "freq": "1/日",
                "prefSche": null,
                "freqDetail": null,
                "administrationId": "口服",
                "cycle": null,
                "recordYear": null,
                "drugType": null,
                "startDateTime": "2013-11-26 17:02:00",
                "stopDateTime": "2013-12-02 11:00:00",
                "blackType": null,
                "sourceFileName": null,
                "sourceFileUrl": null,
                "source": null,
                "createDate": null,
                "updateDate": null,
                "way": "长期"
            },
            {
                "id": null,
                "xlPatientId": null,
                "xlMedicalId": null,
                "patiId": "Y2802470",
                "patiVisitId": "1",
                "drugName": "福辛普利钠片",
                "drugId": null,
                "repeatIndicator": null,
                "drugClassId": null,
                "doseage": "10",
                "doseUnit": "mg",
                "freq": "1/日",
                "prefSche": null,
                "freqDetail": null,
                "administrationId": "口服",
                "cycle": null,
                "recordYear": null,
                "drugType": null,
                "startDateTime": "2013-11-26 17:02:00",
                "stopDateTime": "2013-12-02 11:00:00",
                "blackType": null,
                "sourceFileName": null,
                "sourceFileUrl": null,
                "source": null,
                "createDate": null,
                "updateDate": null,
                "backgroundColor": true,
                "way": "长期"
            },
            {
                
                "id": null,
                "xlPatientId": null,
                "xlMedicalId": null,
                "patiId": "Y2802470",
                "patiVisitId": "1",
                "drugName": "碳酸氢钠片",
                "drugId": null,
                "repeatIndicator": null,
                "drugClassId": null,
                "doseage": "1",
                "doseUnit": "g",
                "freq": "3/日",
                "prefSche": null,
                "freqDetail": null,
                "administrationId": "口服",
                "cycle": null,
                "recordYear": null,
                "drugType": null,
                "startDateTime": "2013-11-26 17:07:00",
                "stopDateTime": "2013-12-02 11:00:00",
                "blackType": null,
                "sourceFileName": null,
                "sourceFileUrl": null,
                "source": null,
                "createDate": null,
                "updateDate": null,
                "way": "长期"
            },
            {
                "id": null,
                "xlPatientId": null,
                "xlMedicalId": null,
                "patiId": "Y2802470",
                "patiVisitId": "1",
                "drugName": "尿毒清颗粒(无糖型)",
                "drugId": null,
                "repeatIndicator": null,
                "drugClassId": null,
                "doseage": "5",
                "doseUnit": "g",
                "freq": "3/日",
                "prefSche": null,
                "freqDetail": null,
                "administrationId": "口服",
                "cycle": null,
                "recordYear": null,
                "drugType": null,
                "startDateTime": "2013-11-26 17:07:00",
                "stopDateTime": "2013-12-02 11:00:00",
                "blackType": null,
                "sourceFileName": null,
                "sourceFileUrl": null,
                "source": null,
                "createDate": null,
                "updateDate": null,
                "way": "长期"
            },
            {
                "id": null,
                "xlPatientId": null,
                "xlMedicalId": null,
                "patiId": "Y2802470",
                "patiVisitId": "1",
                "drugName": "木丹颗粒",
                "drugId": null,
                "repeatIndicator": null,
                "drugClassId": null,
                "doseage": "7",
                "doseUnit": "g",
                "freq": "3/日",
                "prefSche": null,
                "freqDetail": null,
                "administrationId": "口服",
                "cycle": null,
                "recordYear": null,
                "drugType": null,
                "startDateTime": "2013-11-26 17:07:00",
                "stopDateTime": "2013-11-27 17:43:59",
                "blackType": null,
                "sourceFileName": null,
                "sourceFileUrl": null,
                "source": null,
                "createDate": null,
                "updateDate": null,
                "way": "长期"
            },
            {
                "id": null,
                "xlPatientId": null,
                "xlMedicalId": null,
                "patiId": "Y2802470",
                "patiVisitId": "1",
                "drugName": "★氢氯噻嗪片",
                "drugId": null,
                "repeatIndicator": null,
                "drugClassId": null,
                "doseage": "25",
                "doseUnit": "mg",
                "freq": "1/中午",
                "prefSche": null,
                "freqDetail": null,
                "administrationId": "口服",
                "cycle": null,
                "recordYear": null,
                "drugType": null,
                "startDateTime": "2013-11-26 17:08:00",
                "stopDateTime": "2013-12-02 11:00:00",
                "blackType": null,
                "sourceFileName": null,
                "sourceFileUrl": null,
                "source": null,
                "createDate": null,
                "updateDate": null,
                "backgroundColor": true,
                "way": "长期"
            },
            {
                
                "id": null,
                "xlPatientId": null,
                "xlMedicalId": null,
                "patiId": "Y2802470",
                "patiVisitId": "1",
                "drugName": "氯化钠注射液",
                "drugId": null,
                "repeatIndicator": null,
                "drugClassId": null,
                "doseage": "20",
                "doseUnit": "ml",
                "freq": "-",
                "prefSche": null,
                "freqDetail": null,
                "administrationId": "静推",
                "cycle": null,
                "recordYear": null,
                "drugType": null,
                "startDateTime": "2013-11-26 18:19:21",
                "stopDateTime": "2013-11-26 18:19:21",
                "blackType": null,
                "sourceFileName": null,
                "sourceFileUrl": null,
                "source": null,
                "createDate": null,
                "updateDate": null,
                "way": "临时"
            },
            {
                "id": null,
                "xlPatientId": null,
                "xlMedicalId": null,
                "patiId": "Y2802470",
                "patiVisitId": "1",
                "drugName": "氯化钠注射液",
                "drugId": null,
                "repeatIndicator": null,
                "drugClassId": null,
                "doseage": "100",
                "doseUnit": "ml",
                "freq": "2/日",
                "prefSche": null,
                "freqDetail": null,
                "administrationId": "静滴",
                "cycle": null,
                "recordYear": null,
                "drugType": null,
                "startDateTime": "2013-11-27 08:42:00",
                "stopDateTime": "2013-12-02 11:00:00",
                "blackType": null,
                "sourceFileName": null,
                "sourceFileUrl": null,
                "source": null,
                "createDate": null,
                "updateDate": null,
                "way": "长期"
            },
            {
                "id": null,
                "xlPatientId": null,
                "xlMedicalId": null,
                "patiId": "Y2802470",
                "patiVisitId": "1",
                "drugName": "葡萄糖注射液",
                "drugId": null,
                "repeatIndicator": null,
                "drugClassId": null,
                "doseage": "250",
                "doseUnit": "ml",
                "freq": "-",
                "prefSche": null,
                "freqDetail": null,
                "administrationId": "泵入",
                "cycle": null,
                "recordYear": null,
                "drugType": null,
                "startDateTime": "2012-11-10 19:14:29",
                "stopDateTime": "2012-11-10 19:14:29",
                "blackType": null,
                "sourceFileName": null,
                "sourceFileUrl": null,
                "source": null,
                "createDate": null,
                "updateDate": null,
                "way": "临时"
            },
            {
                "id": null,
                "xlPatientId": null,
                "xlMedicalId": null,
                "patiId": "Y2802470",
                "patiVisitId": "1",
                "drugName": "低分子肝素钙注射液",
                "drugId": null,
                "repeatIndicator": null,
                "drugClassId": null,
                "doseage": "0.2",
                "doseUnit": "ml",
                "freq": "-",
                "prefSche": null,
                "freqDetail": null,
                "administrationId": "皮下注射",
                "cycle": null,
                "recordYear": null,
                "drugType": null,
                "startDateTime": "2012-11-10 20:45:06",
                "stopDateTime": "2012-11-14 08:47:14",
                "blackType": null,
                "sourceFileName": null,
                "sourceFileUrl": null,
                "source": null,
                "createDate": null,
                "updateDate": null,
                "way": "临时"
            }
        ],
        "last": false,
        "totalPages": 2,
        "totalElements": 12,
        "numberOfElements": 10,
        "sort": [
            {
                "direction": "ASC",
                "property": "id",
                "ignoreCase": false,
                "nullHandling": "NATIVE",
                "ascending": true
            }
        ],
        "first": true,
        "size": 10,
        "number": 0
    },
    "status": "ok",
    "description": "数据请求成功"
}