{
  "status": "ok",
  "description": "数据请求成功",
  "data": {
    "page":{
      "content":[
        {
          "id": 69,
          "patientId": "a102",
          "hospitalId": "a102",
          "medicalId": "1",
          "visitId": "1",
          "updator": null,
          "number": "1",
          "name": "传染病",
          "CRFname": "艾滋病并发耶氏肺孢子菌个案调查表",
          "clinic": "自定义",
          "createdtime": "张三",
          "changetime":"2016-01-01",
          "useNubmer":1,
          "operat":"详情/使用"
        }
      ],
      "sort": [
        {
          "direction": "DESC",
          "property": "id",
          "ignoreCase": false,
          "nullHandling": "NATIVE",
          "ascending": false
        }
      ],
      "totalPages": 2,
      "firstPage": true,
      "lastPage": true,
      "numberOfElements": 4,
      "totalElements": 8,
      "size": 4,
      "number": 0
    },
    "status":"ok",
    "description":"数据请求成功"
  }
}