{
  "status": "ok",
  "description": "数据请求成功",
  "data": {
    "page":{
      "content":[
        {
          "id": 69,
          "patientId": "a102",
          "hospitalId": "a102",
          "medicalId": "1",
          "visitId": "1",
          "updator": null,

          "userType": "1",
          "companyName": "传染病",
          "officeName": "艾滋病",
          "loginName": "自定义",
          "name": "张三",
          "createDate": "2016-09-09",
          "phone": "0"
        },
        {
          "id": 50,
          "patientId": "a102",
          "hospitalId": "a102",
          "medicalId": "1",
          "visitId": "1",
          "updator": null,

          "userType": "1",
          "companyName": "传染病",
          "officeName": "艾滋病1",
          "loginName": "收藏",
          "name": "张二",
          "createDate": "2016-09-09",
          "phone": "0"
        },
        {
          "id": 51,
          "patientId": "a102",
          "hospitalId": "a102",
          "medicalId": "1",
          "visitId": "1",
          "updator": null,

          "userType": "1",
          "companyName": "传染病",
          "officeName": "艾滋病2",
          "loginName": "收藏",
          "name": "张一",
          "createDate": "2016-09-09",
          "phone": "0"
        }
      ],
      "sort": [
        {
          "direction": "DESC",
          "property": "id",
          "ignoreCase": false,
          "nullHandling": "NATIVE",
          "ascending": false
        }
      ],
      "totalPages": 2,
      "firstPage": true,
      "lastPage": true,
      "numberOfElements": 4,
      "totalElements": 8,
      "size": 4,
      "number": 0
    },
    "status":"ok",
    "description":"数据请求成功"
  }
}